Problem set 4
…
# Output
print(arrival_delays)

# A tibble: 102 × 3
   name                          mean_arrival_delay median_arrival_delay
   <chr>                                      <dbl>                <dbl>
 1 Columbia Metropolitan                       41.8                   28
 2 Tulsa Intl                                  33.7                   14
 3 Will Rogers World                           30.6                   16
 4 Jackson Hole Airport                        28.1                   15
 5 Mc Ghee Tyson                               24.1                    2
 6 Dane Co Rgnl Truax Fld                      20.2                    1
 7 Richmond Intl                               20.1                    1
 8 Akron Canton Regional Airport               19.7                    3
 9 Des Moines Intl                             19.0                    0
10 Gerald R Ford Intl                          18.2                    1
# ℹ 92 more rows
…
